/Users/yohan/Documents/kerjaan/TelkomConnectLDAP/src/main/java/com/nostratech/project/persistence/service/MigrasiUserService.java
/Users/yohan/Documents/kerjaan/TelkomConnectLDAP/src/main/java/com/nostratech/project/controller/BaseController.java
/Users/yohan/Documents/kerjaan/TelkomConnectLDAP/src/main/java/com/nostratech/project/exception/GlobalDefaultExceptionHandler.java
/Users/yohan/Documents/kerjaan/TelkomConnectLDAP/src/main/java/com/nostratech/project/persistence/repository/BaseRepository.java
/Users/yohan/Documents/kerjaan/TelkomConnectLDAP/src/main/java/com/nostratech/project/util/RestUtil.java
/Users/yohan/Documents/kerjaan/TelkomConnectLDAP/src/main/java/com/nostratech/project/persistence/vo/UserLDAPVO.java
/Users/yohan/Documents/kerjaan/TelkomConnectLDAP/src/main/java/com/nostratech/project/converter/ParameterVoConverter.java
/Users/yohan/Documents/kerjaan/TelkomConnectLDAP/src/main/java/com/nostratech/project/controller/LDAPController.java
/Users/yohan/Documents/kerjaan/TelkomConnectLDAP/src/main/java/com/nostratech/project/persistence/vo/UserOUParentVO.java
/Users/yohan/Documents/kerjaan/TelkomConnectLDAP/src/main/java/com/nostratech/project/converter/IBaseVoConverter.java
/Users/yohan/Documents/kerjaan/TelkomConnectLDAP/src/main/java/com/nostratech/project/util/ExtendedSpringBeanUtil.java
/Users/yohan/Documents/kerjaan/TelkomConnectLDAP/src/main/java/com/nostratech/project/persistence/vo/ObjectClassVO.java
/Users/yohan/Documents/kerjaan/TelkomConnectLDAP/src/main/java/com/nostratech/project/util/LDAPUtil.java
/Users/yohan/Documents/kerjaan/TelkomConnectLDAP/src/main/java/com/nostratech/project/persistence/vo/ResultVO.java
/Users/yohan/Documents/kerjaan/TelkomConnectLDAP/src/main/java/com/nostratech/project/util/Constants.java
/Users/yohan/Documents/kerjaan/TelkomConnectLDAP/src/main/java/com/nostratech/project/controller/RestController.java
/Users/yohan/Documents/kerjaan/TelkomConnectLDAP/src/main/java/com/nostratech/project/persistence/domain/Parameter.java
/Users/yohan/Documents/kerjaan/TelkomConnectLDAP/src/main/java/com/nostratech/project/persistence/vo/ParameterVO.java
/Users/yohan/Documents/kerjaan/TelkomConnectLDAP/src/main/java/com/nostratech/project/controller/LDAPController2.java
/Users/yohan/Documents/kerjaan/TelkomConnectLDAP/src/main/java/com/nostratech/project/ProjectApplication.java
/Users/yohan/Documents/kerjaan/TelkomConnectLDAP/src/main/java/com/nostratech/project/controller/AbstractRequestHandler.java
/Users/yohan/Documents/kerjaan/TelkomConnectLDAP/src/main/java/com/nostratech/project/persistence/repository/ParameterRepository.java
/Users/yohan/Documents/kerjaan/TelkomConnectLDAP/src/main/java/com/nostratech/project/persistence/service/BaseService.java
/Users/yohan/Documents/kerjaan/TelkomConnectLDAP/src/main/java/com/nostratech/project/enums/StatusCode.java
/Users/yohan/Documents/kerjaan/TelkomConnectLDAP/src/main/java/com/nostratech/project/persistence/service/AbstractBaseService.java
/Users/yohan/Documents/kerjaan/TelkomConnectLDAP/src/main/java/com/nostratech/project/converter/BaseVoConverter.java
/Users/yohan/Documents/kerjaan/TelkomConnectLDAP/src/main/java/com/nostratech/project/persistence/vo/JumlahBaseDNVO.java
/Users/yohan/Documents/kerjaan/TelkomConnectLDAP/src/main/java/com/nostratech/project/persistence/domain/Base.java
/Users/yohan/Documents/kerjaan/TelkomConnectLDAP/src/main/java/com/nostratech/project/persistence/service/MigrasiAttributeAndObjectClassService.java
/Users/yohan/Documents/kerjaan/TelkomConnectLDAP/src/main/java/com/nostratech/project/exception/NostraException.java
/Users/yohan/Documents/kerjaan/TelkomConnectLDAP/src/main/java/com/nostratech/project/persistence/vo/UserOULDAPVO.java
/Users/yohan/Documents/kerjaan/TelkomConnectLDAP/src/main/java/com/nostratech/project/controller/AbstractBaseController.java
/Users/yohan/Documents/kerjaan/TelkomConnectLDAP/src/main/java/com/nostratech/project/controller/ParameterController.java
/Users/yohan/Documents/kerjaan/TelkomConnectLDAP/src/main/java/com/nostratech/project/util/CSVUtil.java
/Users/yohan/Documents/kerjaan/TelkomConnectLDAP/src/main/java/com/nostratech/project/controller/AbstractRequestPageHandler.java
/Users/yohan/Documents/kerjaan/TelkomConnectLDAP/src/main/java/com/nostratech/project/controller/RestPageController.java
/Users/yohan/Documents/kerjaan/TelkomConnectLDAP/src/main/java/com/nostratech/project/persistence/service/MigrasiUserService2.java
/Users/yohan/Documents/kerjaan/TelkomConnectLDAP/src/main/java/com/nostratech/project/persistence/service/ParameterService.java
/Users/yohan/Documents/kerjaan/TelkomConnectLDAP/src/main/java/com/nostratech/project/persistence/vo/BaseVO.java
/Users/yohan/Documents/kerjaan/TelkomConnectLDAP/src/main/java/com/nostratech/project/enums/BaseModelEnum.java
/Users/yohan/Documents/kerjaan/TelkomConnectLDAP/src/main/java/com/nostratech/project/util/UsernameAuditorAware.java
/Users/yohan/Documents/kerjaan/TelkomConnectLDAP/src/main/java/com/nostratech/project/persistence/vo/ResultPageVO.java
